…
Plotting Information

Let us plot the data using a time-series scatter plot, and add a
trendline. To do that, we first need to create a new variable called
date in order to ensure that the delta values are plot
chronologically.

# Add date column to dataframe
tidyweather <- tidyweather %>%
  mutate(date = ymd(paste(as.character(year), month, "1")),
         month = month(date, label = TRUE),
         year = year(date))
tidyweather

## # A tibble: 1,716 × 4
##     year month delta date      
##    <dbl> <ord> <dbl> <date>    
##  1  1880 Jan   -0.39 1880-01-01
##  2  1880 Feb   -0.53 1880-02-01
##  3  1880 Mar   -0.23 1880-03-01
##  4  1880 Apr   -0.3  1880-04-01
##  5  1880 May   -0.05 1880-05-01
##  6  1880 Jun   -0.18 1880-06-01
##  7  1880 Jul   -0.21 1880-07-01
##  8  1880 Aug   -0.25 1880-08-01
##  9  1880 Sep   -0.24 1880-09-01
## 10  1880 Oct   -0.3  1880-10-01
## # … with 1,706 more rows
## # ℹ Use `print(n = ...)` to see more rows
…
