…
# Determine average popularity_index and count by subgenre

spotify_songs %>% 
  group_by(playlist_subgenre) %>% 
  summarize(average_track_popularity = mean(track_popularity), count_of_subgenre = count(playlist_subgenre))

## # A tibble: 24 × 3
##    playlist_subgenre average_track_popularity count_of_subgenre
##    <chr>                                <dbl>             <int>
##  1 album rock                            38.3              1065
##  2 big room                              32.3              1206
##  3 classic rock                          40.8              1296
##  4 dance pop                             52.1              1298
##  5 electro house                         35.5              1511
##  6 electropop                            42.7              1408
##  7 gangster rap                          35.1              1458
##  8 hard rock                             35.8              1485
##  9 hip hop                               53.8              1322
## 10 hip pop                               53.8              1256
## # … with 14 more rows
## # ℹ Use `print(n = ...)` to see more rows
…
